War Recurrence
…
Cross-Tab Viz

# Filter out rows with NA in the recurr column
episodes |>
  filter(!is.na(recur_any))

# A tibble: 455 × 125
   episode_id cname       year cease outcome country_name conflict_id start_year
        <dbl> <chr>      <dbl> <dbl>   <dbl> <chr>              <dbl>      <dbl>
 1          1 Bolivia (…  1947     0       4 Bolivia              200       1946
 2          2 Bolivia (…  1950     0       3 Bolivia              200       1949
 3          3 Bolivia (…  1953     0       4 Bolivia              200       1952
 4          4 Bolivia (…  1968     0       3 Bolivia              200       1967
 5          5 China       1950     0       4 China                202       1946
 6          6 Greece      1950     0       3 Greece               203       1946
 7          7 Iran (Isl…  1947     0       3 Iran                 205       1946
 8          8 Iran (Isl…  1969     0       5 Iran                 205       1966
 9          9 Iran (Isl…  1989     0       5 Iran                 205       1979
10         10 Iran (Isl…  1991     0       5 Iran                 205       1990
# ℹ 445 more rows
# ℹ 117 more variables: end_year <dbl>, peace_cease <dbl>,
#   peace_cease_notes <chr>, wdi_expmilge <dbl>, wdi_armimp <dbl>,
#   wdi_expmil <dbl>, bicc_hw <dbl>, bicc_gmi <dbl>, atop_ally <dbl>,
#   atop_number <dbl>, bicc_milexp <dbl>, fe_etfra <dbl>, al_ethnic2000 <dbl>,
#   al_language2000 <dbl>, al_religion2000 <dbl>, fe_cultdiv <dbl>,
#   p_durable <dbl>, wdi_gdpcapcur <dbl>, p_polity2 <dbl>, pko_u <dbl>, …
…
